IS415-GAA - Take-home Exercise 2: Application of Spatial and Spatio-temporal Analysis Methods to Discover the Distribution of Dengue Fever in Tainan City, Taiwan
…
We will also need to change dengue dataframe to Taiwan CRS which is TWD97/3824 to perform an intersection with tainan dataframe later.

dengue <- st_as_sf(dengue, 
                   coords = c("LONGITUDE", "LATITUDE"),
                   crs=3824)

dengue

Simple feature collection with 106081 features and 27 fields
Geometry type: POINT
Dimension:     XY
Bounding box:  xmin: 118.3081 ymin: 21.92574 xmax: 121.9826 ymax: 26.15617
Geodetic CRS:  TWD97
# A tibble: 106,081 × 28
   ONSET_DATE 個案研判日 通報日     性別  年齡層 CITY   居住鄉鎮 居住村里
 * <date>     <chr>      <date>     <chr> <chr>  <chr>  <chr>    <chr>   
 1 1998-01-02 None       1998-01-07 男    40-44  屏東縣 屏東市   None    
 2 1998-01-03 None       1998-01-14 男    30-34  屏東縣 東港鎮   None    
 3 1998-01-13 None       1998-02-18 男    55-59  宜蘭縣 宜蘭市   None    
 4 1998-01-15 None       1998-01-23 男    35-39  高雄市 苓雅區   None    
 5 1998-01-20 None       1998-02-04 男    55-59  宜蘭縣 五結鄉   None    
 6 1998-01-23 None       1998-02-02 男    40-44  新北市 新店區   None    
 7 1998-01-26 None       1998-02-19 女    65-69  台北市 北投區   None    
 8 1998-02-11 None       1998-02-13 女    25-29  台南市 南區     None    
 9 1998-02-16 None       1998-02-24 男    20-24  高雄市 楠梓區   None    
10 1998-02-17 None       1998-02-23 女    30-34  高雄市 鳳山區   None    
# ℹ 106,071 more rows
# ℹ 20 more variables: 最小統計區 <chr>, 一級統計區 <chr>, 二級統計區 <chr>,
#   感染縣市 <chr>, 感染鄉鎮 <chr>, 感染村里 <chr>, 是否境外移入 <chr>,
#   感染國家 <chr>, 確定病例數 <dbl>, 居住村里代碼 <chr>, 感染村里代碼 <chr>,
#   血清型 <chr>, 內政部居住縣市代碼 <chr>, 內政部居住鄉鎮代碼 <chr>,
#   內政部感染縣市代碼 <chr>, 內政部感染鄉鎮代碼 <chr>, ONSET_YEAR <dbl>,
#   ONSET_MONTH <ord>, EPIWEEK <dbl>, geometry <POINT [°]>
…
HCSA <- wm_idw %>% 
  mutate(local_Gi = local_gstar_perm(
    VILLCODE, nb, wt, nsim = 99),
         .before = 1) %>%
  unnest(local_Gi)

HCSA

Simple feature collection with 258 features and 22 fields
Geometry type: POLYGON
Dimension:     XY
Bounding box:  xmin: 120.0627 ymin: 22.89401 xmax: 120.2925 ymax: 23.09144
Geodetic CRS:  TWD97
# A tibble: 258 × 23
   gi_star    e_gi   var_gi p_value   p_sim p_folded_sim skewness kurtosis nb   
     <dbl>   <dbl>    <dbl>   <dbl>   <dbl>        <dbl>    <dbl>    <dbl> <nb> 
 1    1.60 0.00388 3.53e-19   1.39  1.64e-1         0.1      0.05 -0.640   <int>
 2   -6.34 0.00388 2.97e-19  -5.39  7.18e-8         0.02     0.01 -0.219   <int>
 3    2.99 0.00388 1.72e-19   2.55  1.08e-2         0.02     0.01 -0.0536  <int>
 4    1.17 0.00388 1.79e-19   1.38  1.68e-1         0.2      0.1  -0.00550 <int>
 5    1.79 0.00388 2.39e-19   2.07  3.81e-2         0.02     0.01 -0.572   <int>
 6    2.28 0.00388 1.90e-19   2.22  2.61e-2         0.04     0.02 -0.261   <int>
 7    1.22 0.00388 2.51e-19   0.599 5.49e-1         0.62     0.31 -0.402   <int>
 8    2.95 0.00388 1.95e-19   2.51  1.22e-2         0.02     0.01 -0.164   <int>
 9    1.97 0.00388 2.52e-19   2.00  4.55e-2         0.06     0.03 -0.123   <int>
10    2.13 0.00388 2.54e-19   1.86  6.35e-2         0.04     0.02 -0.179   <int>
# ℹ 248 more rows
# ℹ 14 more variables: wts <list>, VILLCODE <dbl>, COUNTYNAME <chr>,
#   TOWNNAME <chr>, VILLNAME <chr>, VILLENG <chr>, COUNTYID <chr>,
#   COUNTYCODE <chr>, TOWNID <chr>, TOWNCODE <chr>, NOTE <chr>, EPIWEEK <dbl>,
#   count <dbl>, geometry <POLYGON [°]>
…
