IS415-GAA - Analysing the Recycling Stations in Hong Kong using Exploratory Data Analysis (EDA) & Second Point Spatial Analysis
…
We are changing the coordinate system of cp dataset so that we can project the points on the graph later, we will convert it to WGS84 then Hong Kong coordinate system (2326)

cp_sf <- st_as_sf(cp, 
                  coords = c("lgt","lat"), 
                  crs = 4326) %>%
  st_transform(crs=2326)
cp_sf

Simple feature collection with 6520 features and 6 fields
Geometry type: POINT
Dimension:     XY
Bounding box:  xmin: 802869.2 ymin: 806784.4 xmax: 863930.7 ymax: 846323
Projected CRS: Hong Kong 1980 Grid System
# A tibble: 6,520 × 7
# Groups:   legend [8]
   cp_id district_id address_en                    address2_en waste_type legend
 * <dbl> <chr>       <chr>                         <chr>       <chr>      <chr> 
 1   283 Kwai_Tsing  Kwai Hing Road near Kwai Hin… <NA>        Metals,Ot… Recyc…
 2   286 Kwai_Tsing  Wing Shun Street near Tsuen … <NA>        Metals,Ot… Recyc…
 3   288 Kwai_Tsing  Tai Wong Ha Resite Village R… <NA>        Metals,Ot… Recyc…
 4   289 Kwai_Tsing  Chung Mei Lo Uk Village RCP   <NA>        Glass Bot… Recyc…
 5   293 Kwai_Tsing  Entrance to Tsing Fai San Ts… <NA>        Glass Bot… Recyc…
 6   294 Kwai_Tsing  Kwai Shun Street RCP, near K… <NA>        Metals,Ot… Recyc…
 7   295 Kwai_Tsing  Wing Kin Road RCP, No.14 Win… <NA>        Metals,Ot… Recyc…
 8   296 Kwai_Tsing  Hing Shing Road RCP, No. 82 … <NA>        Metals,Ot… Recyc…
 9   297 Kwai_Tsing  Tai Yuen Street RCP, near th… <NA>        Metals,Ot… Recyc…
10   298 Kwai_Tsing  Pavement outside No. 3 Kin C… <NA>        Metals,Ot… Recyc…
# ℹ 6,510 more rows
# ℹ 1 more variable: geometry <POINT [m]>
…
